info face="GJJHPJW--GB1-0" size=36 bold=0 italic=0 charset="" unicode=0 stretchH=100 smooth=1 aa=1 padding=0,0,0,0 spacing=2,2
common lineHeight=45 base=36 scaleW=128 scaleH=128 pages=1 packed=0
page id=0 file="font_num.png"
chars count=21
char id=77 x=2 y=2 width=30 height=28 xoffset=3 yoffset=8 xadvance=34 page=0 chnl=0 letter="M"
char id=52 x=34 y=2 width=24 height=27 xoffset=1 yoffset=9 xadvance=24 page=0 chnl=0 letter="4"
char id=48 x=60 y=2 width=23 height=27 xoffset=2 yoffset=9 xadvance=24 page=0 chnl=0 letter="0"
char id=54 x=85 y=2 width=23 height=27 xoffset=1 yoffset=9 xadvance=24 page=0 chnl=0 letter="6"
char id=56 x=2 y=32 width=23 height=27 xoffset=2 yoffset=9 xadvance=24 page=0 chnl=0 letter="8"
char id=57 x=27 y=32 width=23 height=27 xoffset=1 yoffset=9 xadvance=24 page=0 chnl=0 letter="9"
char id=50 x=52 y=32 width=22 height=27 xoffset=3 yoffset=9 xadvance=24 page=0 chnl=0 letter="2"
char id=51 x=76 y=32 width=22 height=27 xoffset=2 yoffset=9 xadvance=24 page=0 chnl=0 letter="3"
char id=53 x=100 y=32 width=22 height=27 xoffset=2 yoffset=9 xadvance=24 page=0 chnl=0 letter="5"
char id=55 x=2 y=61 width=22 height=27 xoffset=0 yoffset=9 xadvance=21 page=0 chnl=0 letter="7"
char id=49 x=26 y=61 width=14 height=27 xoffset=2 yoffset=9 xadvance=19 page=0 chnl=0 letter="1"
char id=47 x=42 y=61 width=14 height=27 xoffset=1 yoffset=9 xadvance=14 page=0 chnl=0 letter="/"
char id=92 x=58 y=61 width=14 height=27 xoffset=1 yoffset=9 xadvance=14 page=0 chnl=0 letter="\"
char id=43 x=74 y=61 width=21 height=22 xoffset=1 yoffset=14 xadvance=22 page=0 chnl=0 letter="+"
char id=97 x=97 y=61 width=22 height=21 xoffset=2 yoffset=15 xadvance=24 page=0 chnl=0 letter="a"
char id=120 x=2 y=90 width=18 height=21 xoffset=1 yoffset=15 xadvance=19 page=0 chnl=0 letter="x"
char id=58 x=22 y=90 width=8 height=21 xoffset=2 yoffset=15 xadvance=12 page=0 chnl=0 letter=":"
char id=42 x=32 y=90 width=17 height=17 xoffset=2 yoffset=8 xadvance=20 page=0 chnl=0 letter="*"
char id=46 x=51 y=90 width=8 height=8 xoffset=2 yoffset=28 xadvance=12 page=0 chnl=0 letter="."
char id=45 x=61 y=90 width=21 height=7 xoffset=1 yoffset=22 xadvance=22 page=0 chnl=0 letter="-"
char id=32 x=84 y=90 width=0 height=0 xoffset=12 yoffset=56 xadvance=12 page=0 chnl=0 letter="space"
