info face="GJJHPJW--GB1-0" size=38 bold=0 italic=0 charset="" unicode=0 stretchH=100 smooth=1 aa=1 padding=0,0,0,0 spacing=2,2
common lineHeight=47 base=38 scaleW=128 scaleH=64 pages=1 packed=0
page id=0 file="font_common.png"
chars count=3
char id=24618 x=2 y=2 width=41 height=39 xoffset=1 yoffset=6 xadvance=38 page=0 chnl=0 letter="怪"
char id=29289 x=45 y=2 width=40 height=39 xoffset=2 yoffset=6 xadvance=38 page=0 chnl=0 letter="物"
char id=32 x=87 y=2 width=0 height=0 xoffset=13 yoffset=58 xadvance=13 page=0 chnl=0 letter="space"
